{
  "prepare_queue": {
    "installed": [],
    "uninstalled": []
  },
  "config_munge": {
    "files": {}
  },
  "installed_plugins": {
    "cordova-plugin-statusbar": {
      "PACKAGE_NAME": "com.airfrance.mobile.inhouse.crewlinerct"
    },
    "cordova-plugin-device": {
      "PACKAGE_NAME": "com.airfrance.mobile.inhouse.crewlinerct"
    },
    "cordova-plugin-splashscreen": {
      "PACKAGE_NAME": "com.airfrance.mobile.inhouse.crewlinerct"
    },
    "cordova-plugin-ionic-webview": {
      "PACKAGE_NAME": "com.airfrance.mobile.inhouse.crewlinerct"
    },
    "cordova-plugin-ionic-keyboard": {
      "PACKAGE_NAME": "com.airfrance.mobile.inhouse.crewlinerct"
    },
    "cordova-custom-config": {
      "PACKAGE_NAME": "com.airfrance.mobile.inhouse.crewlinerct"
    },
    "cordova-plugin-secmobil": {
      "APP_GROUP": "AF_GROUP",
      "PACKAGE_NAME": "com.airfrance.mobile.inhouse.crewlinerct"
    },
    "cordova-support-google-services": {
      "PACKAGE_NAME": "com.airfrance.mobile.inhouse.crewlinerct"
    },
    "cordova-plugin-whitelist": {
      "PACKAGE_NAME": "com.airfrance.mobile.inhouse.crewlinerct"
    },
    "cordova-plugin-brandkhoros": {
      "PACKAGE_NAME": "com.airfrance.mobile.inhouse.crewlinerct"
    },
    "cordova-plugin-advanced-http": {
      "PACKAGE_NAME": "com.airfrance.mobile.inhouse.crewlinerct"
    },
    "cordova-sqlite-storage": {
      "PACKAGE_NAME": "com.airfrance.mobile.inhouse.crewlinerct"
    }
  },
  "dependent_plugins": {
    "cordova-plugin-file": {
      "PACKAGE_NAME": "com.airfrance.mobile.inhouse.crewlinerct"
    }
  }
}